<svg width="126" height="22" viewBox="0 0 126 22" fill="none" xmlns="http://www.w3.org/2000/svg">
<path d="M19.4231 12.1051C19.4188 10.71 19.4176 10.0921 19.4184 9.31843C19.4184 9.27374 19.4188 9.24102 19.4202 9.17049C19.4202 9.1327 19.4202 9.1327 19.4201 9.09637C19.4199 9.06076 19.4199 9.06075 19.4193 9.02062C19.4179 8.78831 19.3622 8.58206 19.2602 8.41188C19.1543 8.23587 18.999 8.09885 18.8014 8.00976C18.7524 7.98748 18.7067 7.96965 18.665 7.95652C18.188 7.8084 17.7162 7.96135 17.4926 8.33398C17.4707 8.3709 17.4482 8.41565 17.42 8.47841C17.3211 8.69767 17.2638 8.96102 17.2623 9.19918C17.2599 9.54184 17.2585 9.8161 17.2547 10.4618C17.2462 10.5934 17.2414 10.7134 17.2406 10.8253L17.2378 11.4655L17.235 12.1056C17.2284 13.741 17.2309 15.068 17.2453 16.3433C17.2592 17.6252 17.1875 18.4204 16.8749 19.138C18.2925 18.9596 19.4019 17.7574 19.4165 16.2318C19.4276 15.0687 19.4283 14.0317 19.4231 12.1051ZM16.0063 20.0752C15.6532 20.0301 15.4744 19.626 15.6785 19.3344C16.2039 18.584 16.3157 17.8954 16.299 16.3538C16.2845 15.0732 16.282 13.7417 16.2886 12.1016L16.2914 11.4613C16.2928 11.1412 16.2928 11.1412 16.2943 10.8198C16.2952 10.6872 16.3007 10.5494 16.3093 10.429C16.3121 9.81104 16.3135 9.53631 16.3159 9.19299C16.3182 8.82314 16.404 8.42924 16.5572 8.08958C16.5986 7.99752 16.6358 7.92332 16.6798 7.84911C17.1401 7.08206 18.0698 6.78071 18.9473 7.05323C19.0295 7.07908 19.1108 7.11079 19.1918 7.14766C19.5624 7.31474 19.8654 7.58206 20.0715 7.92468C20.2626 8.24345 20.3633 8.61605 20.3656 9.0091C20.3662 9.05127 20.3663 9.05128 20.3665 9.09199C20.3666 9.13197 20.3666 9.13197 20.3666 9.17941C20.3652 9.25278 20.3647 9.28177 20.3647 9.31891C20.364 10.0914 20.3652 10.7084 20.3695 12.1024C20.3747 14.0328 20.374 15.0727 20.3628 16.2409C20.3403 18.5902 18.3275 20.3714 16.0063 20.0752ZM13.9991 20.0109C13.9728 19.9893 13.9418 19.964 13.9051 19.9339C13.4359 19.5491 13.1804 19.3193 12.9254 19.0295C12.194 18.1968 11.9107 17.173 11.9154 15.8331C11.9272 12.7878 11.9257 10.35 11.9144 4.86729C11.9111 3.18475 10.9571 1.98468 9.43666 1.72789C8.65859 1.59593 7.95852 1.734 7.35692 2.12666C7.48894 2.2299 7.63081 2.34052 7.62316 2.33453C8.10436 2.71149 8.39708 2.96271 8.6784 3.25892C9.39222 4.00996 9.72239 4.99029 9.72352 6.14544C9.72422 6.83057 9.72474 7.37914 9.72586 8.61176C9.72976 12.9285 9.73216 14.8464 9.73765 17.2444C9.74096 18.529 10.3181 19.443 11.4814 20.026C12.2547 20.4134 13.2729 20.3808 13.9991 20.0109ZM8.79125 17.2464C8.78576 14.8481 8.78336 12.9298 8.77946 8.61261C8.77834 7.38003 8.77785 6.83148 8.77715 6.14638C8.77624 5.21778 8.52468 4.47092 7.99229 3.91077C7.75068 3.65638 7.48692 3.42998 7.03956 3.07953C7.05423 3.09103 6.68376 2.80215 6.57819 2.71857C6.47546 2.63724 6.38389 2.56342 6.29636 2.49109C6.07701 2.30982 6.06611 1.97735 6.2731 1.78211C7.17834 0.928226 8.32876 0.580089 9.59458 0.794762C11.5822 1.13045 12.8566 2.73365 12.8608 4.86538C12.8721 10.35 12.8735 12.7889 12.8618 15.8366C12.8578 16.9661 13.081 17.7726 13.6361 18.4046C13.8474 18.6447 14.0736 18.8482 14.5053 19.2022C14.599 19.2789 14.6564 19.3259 14.6941 19.3569C14.8563 19.4901 14.9724 19.5874 15.0871 19.6876C15.2982 19.8722 15.3035 20.1987 15.0984 20.39C14.1114 21.3104 12.3577 21.5235 11.0575 20.8722C9.5775 20.1304 8.79544 18.8919 8.79125 17.2464ZM4.39972 5.49663C4.39486 4.43516 4.43868 3.78646 4.63447 3.19718C3.36711 3.38678 2.2805 4.58256 2.23536 6.00837C2.22019 6.48348 2.21856 6.91415 2.22423 7.70075C2.22468 7.76182 2.22467 7.76181 2.22512 7.82293C2.22784 8.19074 2.22879 8.35438 2.22902 8.55944C2.22943 8.96006 2.22956 9.2805 2.22972 10.0014C2.23017 12.0426 2.23183 12.9494 2.23936 14.0822C2.24271 14.6119 2.52658 15.002 2.99405 15.1473C3.47191 15.295 3.94317 15.1422 4.16723 14.7672C4.30746 14.5332 4.3949 14.203 4.39642 13.9042C4.41583 11.5243 4.41505 9.24927 4.40017 5.59948C4.39995 5.5481 4.39996 5.5481 4.39972 5.49663ZM5.34278 13.9105C5.34043 14.3733 5.20888 14.8702 4.9793 15.2532C4.52046 16.0211 3.5912 16.3225 2.71388 16.0513C1.84871 15.7824 1.29894 15.0267 1.293 14.0884C1.28545 12.953 1.28379 12.0448 1.28333 10.0016C1.28317 9.28098 1.28304 8.9607 1.28263 8.56043C1.28241 8.35806 1.28147 8.19574 1.27877 7.82993C1.27832 7.76878 1.27831 7.76877 1.27787 7.70757C1.27211 6.90922 1.27378 6.46914 1.28945 5.9783C1.3596 3.76252 3.32572 1.9662 5.42814 2.25492C5.75834 2.30026 5.93943 2.66365 5.77682 2.95458C5.41312 3.60527 5.34001 4.16228 5.3461 5.49229C5.34633 5.54381 5.34634 5.54388 5.34655 5.59548C5.36145 9.249 5.36221 11.5272 5.34278 13.9105ZM20.9803 16.2782C20.9511 18.9958 18.6107 21.0295 15.8946 20.728C15.8246 20.7201 15.674 20.7693 15.5852 20.8377C14.0937 21.9823 12.4552 22.1996 10.8059 21.4301C9.13208 20.6499 8.21491 19.2381 8.1795 17.3837C8.15786 16.2663 8.15573 15.3737 8.16224 13.3665C8.1652 12.4539 8.16604 12.0483 8.16531 11.5419C8.16463 11.0966 8.16495 10.7406 8.16633 9.93984C8.1697 7.97866 8.16692 7.10771 8.14749 6.02052C8.12642 4.83472 7.36959 3.76268 6.29808 3.35024C6.27533 3.43223 6.24776 3.52636 6.20498 3.67029C6.04868 4.19626 5.99622 4.4255 5.98931 4.68662C5.96443 5.70641 5.96103 6.62883 5.96846 8.30227C5.96905 8.43544 5.96906 8.43543 5.96967 8.56864C5.97321 9.34369 5.97439 9.68827 5.97439 10.119C5.97462 10.4437 5.97534 10.7036 5.97735 11.2886C5.97875 11.6941 5.97932 11.8744 5.9798 12.0998C5.98148 12.8877 5.97964 13.4962 5.97248 14.0877C5.95552 15.5848 4.80421 16.7564 3.33954 16.7679C1.90999 16.7807 0.687158 15.6224 0.67458 14.1997L0.673692 14.1011C0.661892 12.7861 0.657076 12.2007 0.652675 11.4694C0.639837 9.33567 0.645428 7.63884 0.676524 6.0004C0.725405 3.39877 2.83251 1.47339 5.46216 1.57057C5.51385 1.57258 5.64004 1.51906 5.70249 1.459C6.69386 0.512508 7.85168 0.05403 9.16569 0.123582C11.6138 0.250791 13.467 2.21495 13.4764 4.69216C13.4829 6.42036 13.486 8.22646 13.4868 10.3556C13.4872 11.4996 13.487 12.4148 13.4863 14.4737C13.486 15.2458 13.4859 15.589 13.4858 16.0177C13.4858 17.3511 14.1498 18.4454 15.221 18.9186C15.5342 18.3789 15.682 17.796 15.6786 17.1357C15.6712 15.6598 15.6697 14.1714 15.672 12.1027C15.6724 11.9184 15.6726 11.7708 15.673 11.4384C15.6733 11.1058 15.6735 10.9579 15.6739 10.7742C15.6739 10.6701 15.6759 10.5651 15.6796 10.4783C15.6796 9.94198 15.6819 9.46882 15.6871 9.01627C15.7041 7.51927 16.8553 6.34663 18.3192 6.33513C19.0821 6.3284 19.8122 6.65992 20.3213 7.22474C20.7342 7.68323 20.9728 8.26523 20.9841 8.89077C20.9849 9.33657 20.9858 9.69339 20.9879 10.4964C20.99 11.2995 20.9908 11.6566 20.9916 12.1026C20.996 13.7098 20.9931 15.0189 20.9803 16.2782ZM20.0415 10.4989C20.0394 9.69561 20.0385 9.33861 20.0378 8.90021C20.0308 8.51505 19.8812 8.15033 19.6182 7.85818C19.288 7.49181 18.8153 7.27718 18.3271 7.28142C17.383 7.2889 16.6446 8.04101 16.6335 9.02713C16.6282 9.47581 16.626 9.94541 16.6256 10.4963C16.6221 10.5891 16.6203 10.6821 16.6203 10.7752C16.6199 10.9595 16.6197 11.1071 16.6194 11.4394C16.619 11.7721 16.6188 11.9199 16.6184 12.1042C16.6161 14.1707 16.6176 15.6574 16.625 17.131C16.6293 17.9783 16.4288 18.745 16.0065 19.4495C15.9108 19.6083 15.7992 19.7247 15.6736 19.7992C15.7847 19.7805 15.8953 19.7757 15.9998 19.7875C18.1626 20.0276 20.0108 18.4216 20.034 16.2683C20.0467 15.0139 20.0496 13.7086 20.0453 12.105C20.0445 11.6587 20.0436 11.3018 20.0415 10.4989ZM14.888 19.8057C13.4335 19.1876 12.5395 17.7342 12.5395 16.0176C12.5396 15.5887 12.5397 15.2455 12.5399 14.4734C12.5407 12.4147 12.5408 11.4997 12.5404 10.356C12.5396 8.22779 12.5365 6.42271 12.53 4.69572C12.5225 2.71867 11.0611 1.16972 9.11613 1.06866C8.07008 1.01329 7.16402 1.37209 6.35727 2.14231C6.26907 2.22714 6.16273 2.3021 6.04745 2.36227C6.19733 2.34574 6.36374 2.36945 6.53751 2.43001C8.02164 2.95256 9.06515 4.39526 9.09373 6.00366C9.11331 7.09904 9.11609 7.97411 9.1127 9.94147C9.11133 10.7412 9.111 11.0965 9.11168 11.5405C9.11242 12.0489 9.11158 12.4555 9.10862 13.3696C9.10212 15.3696 9.10426 16.2575 9.12572 17.3655C9.15424 18.859 9.85964 19.9449 11.2059 20.5724C12.5276 21.189 13.7912 21.0215 15.0085 20.0873C15.1053 20.0128 15.217 19.9486 15.3356 19.8986C15.1969 19.9042 15.0472 19.873 14.888 19.8057ZM5.71693 2.48609C5.81261 2.41648 5.92447 2.37583 6.04745 2.36227C5.94239 2.41709 5.8299 2.45962 5.71693 2.48609ZM5.4263 2.51628C3.31941 2.43842 1.66154 3.95331 1.62274 6.01827C1.59182 7.64771 1.58626 9.33719 1.59905 11.4637C1.60344 12.1938 1.60825 12.7785 1.62005 14.0926L1.62093 14.1913C1.62882 15.0835 2.41666 15.8298 3.33159 15.8216C4.27673 15.8142 5.01499 15.0629 5.02616 14.0766C5.03326 13.49 5.0351 12.8856 5.03342 12.1019C5.03294 11.877 5.03238 11.697 5.03098 11.2919C5.02896 10.706 5.02823 10.4455 5.028 10.1193C5.028 9.6902 5.02683 9.34658 5.02329 8.57297C5.02268 8.43974 5.02268 8.43974 5.02208 8.30647C5.01462 6.62439 5.01805 5.69501 5.04323 4.66256C5.05312 4.28893 5.11764 4.00699 5.29781 3.40071C5.36408 3.1777 5.39117 3.0832 5.4205 2.96804C5.47633 2.74448 5.58008 2.58566 5.71693 2.48609C5.6189 2.50906 5.5205 2.51994 5.4263 2.51628Z" fill="url(#paint0_linear_789_9451)"/>
<path d="M35.3748 7.95141C36.493 7.95141 37.3899 8.31249 38.0655 9.03466C38.741 9.75682 39.0788 10.7877 39.0788 12.1272V17.7356H37.087V12.3368C37.087 11.4749 36.8657 10.8109 36.4231 10.345C35.9805 9.86748 35.3748 9.6287 34.6061 9.6287C33.814 9.6287 33.1792 9.88495 32.7016 10.3975C32.2241 10.8983 31.9853 11.6379 31.9853 12.6164V17.7356H29.9935V8.10866H31.9853V10.2227C32.2416 9.50057 32.6725 8.94148 33.2782 8.54545C33.8839 8.14943 34.5828 7.95141 35.3748 7.95141Z" fill="black"/>
<path d="M45.811 7.98636C46.7429 7.98636 47.5815 8.18437 48.327 8.58039C49.0724 8.97642 49.6548 9.54716 50.0741 10.2926C50.4934 11.0381 50.7031 11.9117 50.7031 12.9134C50.7031 13.9267 50.4934 14.8061 50.0741 15.5516C49.6548 16.2971 49.0724 16.8678 48.327 17.2638C47.5815 17.6599 46.7429 17.8579 45.811 17.8579C44.8792 17.8579 44.0406 17.6599 43.2951 17.2638C42.5613 16.8678 41.9789 16.2971 41.5479 15.5516C41.1286 14.7945 40.9189 13.9151 40.9189 12.9134C40.9189 11.9117 41.1286 11.0381 41.5479 10.2926C41.9789 9.54716 42.5613 8.97642 43.2951 8.58039C44.0406 8.18437 44.8792 7.98636 45.811 7.98636ZM45.811 9.71606C45.2985 9.71606 44.8268 9.83253 44.3958 10.0655C43.9648 10.2984 43.6154 10.6595 43.3475 11.1487C43.0913 11.6263 42.9631 12.2145 42.9631 12.9134C42.9631 13.6239 43.0913 14.2179 43.3475 14.6955C43.6154 15.1731 43.9648 15.5283 44.3958 15.7613C44.8268 15.9942 45.2985 16.1107 45.811 16.1107C46.3235 16.1107 46.7953 15.9942 47.2262 15.7613C47.6572 15.5283 48.0008 15.1731 48.2571 14.6955C48.525 14.2179 48.6589 13.6239 48.6589 12.9134C48.6589 12.2145 48.525 11.6263 48.2571 11.1487C48.0008 10.6595 47.6572 10.2984 47.2262 10.0655C46.7953 9.83253 46.3235 9.71606 45.811 9.71606Z" fill="black"/>
<path d="M57.4577 16.0059V17.7356H56.2347C55.2097 17.7356 54.4293 17.491 53.8935 17.0018C53.3693 16.5009 53.1072 15.6739 53.1072 14.5208V9.80341H51.727V8.10866H53.1072V5.71503H55.1165V8.10866H57.4402V9.80341H55.1165V14.5557C55.1165 15.1032 55.2155 15.4817 55.4135 15.6914C55.6232 15.901 55.9843 16.0059 56.4968 16.0059H57.4577Z" fill="black"/>
<path d="M63.1847 7.98636C64.0583 7.98636 64.8038 8.20184 65.4211 8.63281C66.0384 9.06378 66.4752 9.63452 66.7315 10.345V8.10866H68.7233V17.7356H66.7315V15.4992C66.4752 16.2097 66.0384 16.7805 65.4211 17.2114C64.8038 17.6424 64.0583 17.8579 63.1847 17.8579C62.3461 17.8579 61.5948 17.6599 60.9309 17.2638C60.2786 16.8678 59.7661 16.2971 59.3934 15.5516C59.0206 14.8061 58.8343 13.9267 58.8343 12.9134C58.8343 11.9117 59.0206 11.0381 59.3934 10.2926C59.7661 9.54716 60.2786 8.97642 60.9309 8.58039C61.5948 8.18437 62.3461 7.98636 63.1847 7.98636ZM63.7962 9.73353C62.911 9.73353 62.2005 10.0189 61.6647 10.5896C61.1405 11.1487 60.8785 11.9233 60.8785 12.9134C60.8785 13.9034 61.1405 14.6838 61.6647 15.2546C62.2005 15.8137 62.911 16.0932 63.7962 16.0932C64.3553 16.0932 64.8562 15.9651 65.2988 15.7089C65.7414 15.441 66.0909 15.0682 66.3471 14.5907C66.6034 14.1131 66.7315 13.554 66.7315 12.9134C66.7315 12.2844 66.6034 11.7311 66.3471 11.2536C66.0909 10.7644 65.7414 10.3916 65.2988 10.1354C64.8562 9.86748 64.3553 9.73353 63.7962 9.73353Z" fill="black"/>
<path d="M73.1053 9.9956C73.4314 9.36662 73.8973 8.87159 74.503 8.51051C75.1087 8.13778 75.8076 7.95141 76.5996 7.95141V10.1179H76.0056C75.132 10.1179 74.4273 10.3334 73.8915 10.7644C73.3673 11.1837 73.1053 11.8825 73.1053 12.861V17.7356H71.1135V8.10866H73.1053V9.9956Z" fill="black"/>
<path d="M77.8124 5.31318C77.8124 4.9754 77.9289 4.69585 78.1618 4.47454C78.3948 4.25323 78.7034 4.14258 79.0878 4.14258C79.4722 4.14258 79.7809 4.25323 80.0138 4.47454C80.2584 4.69585 80.3807 4.9754 80.3807 5.31318C80.3807 5.65097 80.2584 5.92469 80.0138 6.13435C79.7809 6.34401 79.4722 6.44884 79.0878 6.44884C78.7034 6.44884 78.3948 6.34401 78.1618 6.13435C77.9289 5.92469 77.8124 5.65097 77.8124 5.31318ZM80.0837 8.10866V17.7356H78.0919V8.10866H80.0837Z" fill="black"/>
<path d="M85.6564 7.98636C86.7862 7.98636 87.6889 8.27755 88.3645 8.85994C89.0517 9.43068 89.471 10.1994 89.6224 11.1662H87.7355C87.654 10.6421 87.4268 10.2227 87.0541 9.90824C86.693 9.58211 86.2096 9.41904 85.604 9.41904C85.1031 9.41904 84.7129 9.54134 84.4333 9.78594C84.1654 10.0189 84.0315 10.3392 84.0315 10.7469C84.0315 11.0497 84.1305 11.2943 84.3285 11.4807C84.5265 11.6671 84.7711 11.8127 85.0623 11.9175C85.3652 12.0223 85.7903 12.1388 86.3378 12.2669C87.0599 12.43 87.6423 12.5989 88.0849 12.7736C88.5392 12.9483 88.9236 13.2279 89.2381 13.6122C89.5642 13.985 89.7273 14.4975 89.7273 15.1498C89.7273 15.9535 89.4186 16.6057 88.8013 17.1066C88.1956 17.6074 87.3744 17.8579 86.3378 17.8579C85.138 17.8579 84.1654 17.5783 83.42 17.0192C82.6862 16.4601 82.2436 15.6797 82.0921 14.678H84.0315C84.0897 15.2022 84.3227 15.6273 84.7304 15.9535C85.138 16.2796 85.6738 16.4427 86.3378 16.4427C86.8153 16.4427 87.188 16.3204 87.456 16.0758C87.7355 15.8195 87.8753 15.4992 87.8753 15.1148C87.8753 14.777 87.7704 14.5091 87.5608 14.3111C87.3511 14.1131 87.089 13.9617 86.7746 13.8569C86.4601 13.7404 86.0291 13.6239 85.4816 13.5074C84.7828 13.3443 84.212 13.1813 83.7694 13.0182C83.3384 12.8551 82.9657 12.5931 82.6512 12.232C82.3484 11.8593 82.197 11.3584 82.197 10.7294C82.197 9.91407 82.4998 9.25597 83.1055 8.75511C83.7228 8.24261 84.5731 7.98636 85.6564 7.98636Z" fill="black"/>
<path d="M95.5859 7.98636C96.4595 7.98636 97.2049 8.20184 97.8223 8.63281C98.4396 9.06378 98.8764 9.63452 99.1327 10.345V8.10866H101.124V17.7356H99.1327V15.4992C98.8764 16.2097 98.4396 16.7805 97.8223 17.2114C97.2049 17.6424 96.4595 17.8579 95.5859 17.8579C94.7473 17.8579 93.996 17.6599 93.332 17.2638C92.6798 16.8678 92.1673 16.2971 91.7945 15.5516C91.4218 14.8061 91.2354 13.9267 91.2354 12.9134C91.2354 11.9117 91.4218 11.0381 91.7945 10.2926C92.1673 9.54716 92.6798 8.97642 93.332 8.58039C93.996 8.18437 94.7473 7.98636 95.5859 7.98636ZM96.1974 9.73353C95.3122 9.73353 94.6017 10.0189 94.0659 10.5896C93.5417 11.1487 93.2796 11.9233 93.2796 12.9134C93.2796 13.9034 93.5417 14.6838 94.0659 15.2546C94.6017 15.8137 95.3122 16.0932 96.1974 16.0932C96.7565 16.0932 97.2574 15.9651 97.7 15.7089C98.1426 15.441 98.492 15.0682 98.7483 14.5907C99.0045 14.1131 99.1327 13.554 99.1327 12.9134C99.1327 12.2844 99.0045 11.7311 98.7483 11.2536C98.492 10.7644 98.1426 10.3916 97.7 10.1354C97.2574 9.86748 96.7565 9.73353 96.1974 9.73353Z" fill="black"/>
<defs>
<linearGradient id="paint0_linear_789_9451" x1="6.0538" y1="19.7194" x2="16.6304" y2="2.81198" gradientUnits="userSpaceOnUse">
<stop stop-color="#D4145A"/>
<stop offset="1" stop-color="#F94141"/>
</linearGradient>
</defs>
</svg>
